stderr of test 'json-text-empty-separator.Bug-6798` in directory 'sql/test/BugTracker-2019` itself:


# 17:34:09 >  
# 17:34:09 >  "mserver5" "--debug=10" "--set" "gdk_nr_threads=0" "--set" "mapi_open=true" "--set" "mapi_port=36486" "--set" "mapi_usock=/var/tmp/mtest-30991/.s.monetdb.36486" "--forcemito" "--dbpath=/home/kutsurak/work/src/monet/worktrees/Nov2019/build/install/var/MonetDB/mTests_sql_test_BugTracker-2019" "--set" "embedded_c=true"
# 17:34:09 >  

# builtin opt 	gdk_dbpath = /home/kutsurak/work/src/monet/worktrees/Nov2019/build/install/var/monetdb5/dbfarm/demo
# builtin opt 	mapi_port = 50000
# builtin opt 	mapi_open = false
# builtin opt 	mapi_ipv6 = false
# builtin opt 	mapi_autosense = false
# builtin opt 	sql_optimizer = default_pipe
# builtin opt 	sql_debug = 0
# cmdline opt 	gdk_nr_threads = 0
# cmdline opt 	mapi_open = true
# cmdline opt 	mapi_port = 36486
# cmdline opt 	mapi_usock = /var/tmp/mtest-30991/.s.monetdb.36486
# cmdline opt 	gdk_dbpath = /home/kutsurak/work/src/monet/worktrees/Nov2019/build/install/var/MonetDB/mTests_sql_test_BugTracker-2019
# cmdline opt 	embedded_c = true
#client2:!ERROR:MALException:json.parser:JSON syntax error: json parse failed, expecting '{', '['
#client2:!ERROR:MALException:json.parser:JSON syntax error: json parse failed, expecting '{', '['

# 17:34:10 >  
# 17:34:10 >  "mclient" "-lsql" "-ftest" "-tnone" "-Eutf-8" "-i" "-e" "--host=/var/tmp/mtest-30991" "--port=36486"
# 17:34:10 >  

MAPI  = (monetdb) /var/tmp/mtest-30991/.s.monetdb.36486
QUERY = select json.text('"abc"', '');


# 17:34:10 >  
# 17:34:10 >  "Done."
# 17:34:10 >  

